<mxfile host="app.diagrams.net" modified="2021-10-25T11:57:06.597Z" agent="5.0 (Windows)" etag="4gdFTGZiSUMYx7aL7JG6" version="15.5.8" type="gitlab">
  <diagram id="R2lEEEUBdFMjLlhIrx00" name="Page-1">
    <mxGraphModel dx="1888" dy="564" grid="1" gridSize="10" guides="1" tooltips="1" connect="1" arrows="1" fold="1" page="1" pageScale="1" pageWidth="850" pageHeight="1100" math="0" shadow="0" extFonts="Permanent Marker^https://fonts.googleapis.com/css?family=Permanent+Marker">
      <root>
        <mxCell id="0" />
        <mxCell id="1" parent="0" />
        <mxCell id="r7EtD0Q_jqWw8B3kofkO-26" value="" style="rounded=0;whiteSpace=wrap;html=1;align=right;" parent="1" vertex="1">
          <mxGeometry x="920" y="60" width="300" height="310" as="geometry" />
        </mxCell>
        <mxCell id="_luehlbGn4RRNLjj8hbX-1" value="Lieferant" style="whiteSpace=wrap;html=1;align=center;gradientColor=#b3b3b3;fillColor=#f5f5f5;strokeColor=#666666;" parent="1" vertex="1">
          <mxGeometry x="-530" y="200" width="100" height="40" as="geometry" />
        </mxCell>
        <mxCell id="_luehlbGn4RRNLjj8hbX-2" value="Zutat" style="whiteSpace=wrap;html=1;align=center;gradientColor=#b3b3b3;fillColor=#f5f5f5;strokeColor=#666666;" parent="1" vertex="1">
          <mxGeometry x="-610" y="470" width="100" height="40" as="geometry" />
        </mxCell>
        <mxCell id="_luehlbGn4RRNLjj8hbX-3" value="Kunde" style="whiteSpace=wrap;html=1;align=center;gradientColor=#b3b3b3;fillColor=#f5f5f5;strokeColor=#666666;" parent="1" vertex="1">
          <mxGeometry x="420" y="670" width="100" height="40" as="geometry" />
        </mxCell>
        <mxCell id="_luehlbGn4RRNLjj8hbX-6" value="Bestellung" style="whiteSpace=wrap;html=1;align=center;gradientColor=#b3b3b3;fillColor=#f5f5f5;strokeColor=#666666;" parent="1" vertex="1">
          <mxGeometry x="10" y="770" width="100" height="40" as="geometry" />
        </mxCell>
        <mxCell id="_luehlbGn4RRNLjj8hbX-7" value="LieferantenNR" style="ellipse;whiteSpace=wrap;html=1;align=center;fontStyle=4;fillColor=#ffe6cc;strokeColor=#d79b00;" parent="1" vertex="1">
          <mxGeometry x="-710" y="90" width="100" height="40" as="geometry" />
        </mxCell>
        <mxCell id="_luehlbGn4RRNLjj8hbX-9" value="Lieferantenname" style="ellipse;whiteSpace=wrap;html=1;align=center;" parent="1" vertex="1">
          <mxGeometry x="-575" y="40" width="100" height="40" as="geometry" />
        </mxCell>
        <mxCell id="_luehlbGn4RRNLjj8hbX-10" value="Hausnr" style="ellipse;whiteSpace=wrap;html=1;align=center;" parent="1" vertex="1">
          <mxGeometry x="-450" y="30" width="100" height="40" as="geometry" />
        </mxCell>
        <mxCell id="_luehlbGn4RRNLjj8hbX-11" value="Ort" style="ellipse;whiteSpace=wrap;html=1;align=center;" parent="1" vertex="1">
          <mxGeometry x="-760" y="190" width="100" height="40" as="geometry" />
        </mxCell>
        <mxCell id="_luehlbGn4RRNLjj8hbX-12" value="PLZ" style="ellipse;whiteSpace=wrap;html=1;align=center;" parent="1" vertex="1">
          <mxGeometry x="-380" y="290" width="100" height="40" as="geometry" />
        </mxCell>
        <mxCell id="agOr2iN0h2jyaIKl_TcS-14" style="endArrow=none;html=1;fontFamily=Helvetica;fontSize=11;fontColor=#000000;align=center;strokeColor=#000000;entryX=0;entryY=0.75;entryDx=0;entryDy=0;" parent="1" source="_luehlbGn4RRNLjj8hbX-19" target="_luehlbGn4RRNLjj8hbX-2" edge="1">
          <mxGeometry relative="1" as="geometry" />
        </mxCell>
        <mxCell id="_luehlbGn4RRNLjj8hbX-19" value="Bezeichnung" style="ellipse;whiteSpace=wrap;html=1;align=center;" parent="1" vertex="1">
          <mxGeometry x="-830" y="550" width="100" height="40" as="geometry" />
        </mxCell>
        <mxCell id="agOr2iN0h2jyaIKl_TcS-15" style="endArrow=none;html=1;fontFamily=Helvetica;fontSize=11;fontColor=#000000;align=center;strokeColor=#000000;entryX=0;entryY=1;entryDx=0;entryDy=0;" parent="1" source="_luehlbGn4RRNLjj8hbX-20" target="_luehlbGn4RRNLjj8hbX-2" edge="1">
          <mxGeometry relative="1" as="geometry" />
        </mxCell>
        <mxCell id="_luehlbGn4RRNLjj8hbX-20" value="Bestand" style="ellipse;whiteSpace=wrap;html=1;align=center;" parent="1" vertex="1">
          <mxGeometry x="-820" y="640" width="100" height="40" as="geometry" />
        </mxCell>
        <mxCell id="agOr2iN0h2jyaIKl_TcS-16" style="endArrow=none;html=1;fontFamily=Helvetica;fontSize=11;fontColor=#000000;align=center;strokeColor=#000000;entryX=0.25;entryY=1;entryDx=0;entryDy=0;" parent="1" source="_luehlbGn4RRNLjj8hbX-21" target="_luehlbGn4RRNLjj8hbX-2" edge="1">
          <mxGeometry relative="1" as="geometry">
            <mxPoint x="-600" y="510" as="targetPoint" />
          </mxGeometry>
        </mxCell>
        <mxCell id="_luehlbGn4RRNLjj8hbX-21" value="Nettopreis" style="ellipse;whiteSpace=wrap;html=1;align=center;" parent="1" vertex="1">
          <mxGeometry x="-750" y="720" width="100" height="40" as="geometry" />
        </mxCell>
        <mxCell id="agOr2iN0h2jyaIKl_TcS-17" style="endArrow=none;html=1;fontFamily=Helvetica;fontSize=11;fontColor=#000000;align=center;strokeColor=#000000;entryX=0.4;entryY=1.025;entryDx=0;entryDy=0;entryPerimeter=0;" parent="1" source="_luehlbGn4RRNLjj8hbX-22" target="_luehlbGn4RRNLjj8hbX-2" edge="1">
          <mxGeometry relative="1" as="geometry" />
        </mxCell>
        <mxCell id="_luehlbGn4RRNLjj8hbX-22" value="Einheit" style="ellipse;whiteSpace=wrap;html=1;align=center;" parent="1" vertex="1">
          <mxGeometry x="-640" y="770" width="100" height="40" as="geometry" />
        </mxCell>
        <mxCell id="agOr2iN0h2jyaIKl_TcS-18" style="endArrow=none;html=1;fontFamily=Helvetica;fontSize=11;fontColor=#000000;align=center;strokeColor=#000000;" parent="1" source="_luehlbGn4RRNLjj8hbX-23" target="_luehlbGn4RRNLjj8hbX-2" edge="1">
          <mxGeometry relative="1" as="geometry" />
        </mxCell>
        <mxCell id="_luehlbGn4RRNLjj8hbX-23" value="Kalorien" style="ellipse;whiteSpace=wrap;html=1;align=center;" parent="1" vertex="1">
          <mxGeometry x="-480" y="790" width="100" height="40" as="geometry" />
        </mxCell>
        <mxCell id="agOr2iN0h2jyaIKl_TcS-19" style="endArrow=none;html=1;fontFamily=Helvetica;fontSize=11;fontColor=#000000;align=center;strokeColor=#000000;entryX=1;entryY=1;entryDx=0;entryDy=0;" parent="1" source="_luehlbGn4RRNLjj8hbX-24" target="_luehlbGn4RRNLjj8hbX-2" edge="1">
          <mxGeometry relative="1" as="geometry" />
        </mxCell>
        <mxCell id="_luehlbGn4RRNLjj8hbX-24" value="Protein" style="ellipse;whiteSpace=wrap;html=1;align=center;" parent="1" vertex="1">
          <mxGeometry x="-450" y="700" width="100" height="40" as="geometry" />
        </mxCell>
        <mxCell id="agOr2iN0h2jyaIKl_TcS-12" style="endArrow=none;html=1;fontFamily=Helvetica;fontSize=11;fontColor=#000000;align=center;strokeColor=#000000;" parent="1" source="_luehlbGn4RRNLjj8hbX-25" target="_luehlbGn4RRNLjj8hbX-2" edge="1">
          <mxGeometry relative="1" as="geometry" />
        </mxCell>
        <mxCell id="_luehlbGn4RRNLjj8hbX-25" value="Kohlenhydrate&lt;span style=&quot;white-space: pre&quot;&gt;&lt;/span&gt;" style="ellipse;whiteSpace=wrap;html=1;align=center;" parent="1" vertex="1">
          <mxGeometry x="-800" y="360" width="100" height="40" as="geometry" />
        </mxCell>
        <mxCell id="agOr2iN0h2jyaIKl_TcS-13" style="endArrow=none;html=1;fontFamily=Helvetica;fontSize=11;fontColor=#000000;align=center;strokeColor=#000000;" parent="1" source="_luehlbGn4RRNLjj8hbX-26" target="_luehlbGn4RRNLjj8hbX-2" edge="1">
          <mxGeometry relative="1" as="geometry" />
        </mxCell>
        <mxCell id="_luehlbGn4RRNLjj8hbX-26" value="ZutatenNR" style="ellipse;whiteSpace=wrap;html=1;align=center;fontStyle=4;fillColor=#ffe6cc;strokeColor=#d79b00;" parent="1" vertex="1">
          <mxGeometry x="-830" y="460" width="100" height="40" as="geometry" />
        </mxCell>
        <mxCell id="_luehlbGn4RRNLjj8hbX-36" style="endArrow=none;html=1;fontFamily=Helvetica;fontSize=11;fontColor=#000000;align=center;strokeColor=#000000;edgeStyle=orthogonalEdgeStyle;" parent="1" source="_luehlbGn4RRNLjj8hbX-35" target="_luehlbGn4RRNLjj8hbX-2" edge="1">
          <mxGeometry relative="1" as="geometry" />
        </mxCell>
        <mxCell id="_luehlbGn4RRNLjj8hbX-37" style="endArrow=none;html=1;fontFamily=Helvetica;fontSize=11;fontColor=#000000;align=center;strokeColor=#000000;edgeStyle=orthogonalEdgeStyle;" parent="1" source="_luehlbGn4RRNLjj8hbX-35" target="_luehlbGn4RRNLjj8hbX-1" edge="1">
          <mxGeometry relative="1" as="geometry" />
        </mxCell>
        <mxCell id="_luehlbGn4RRNLjj8hbX-35" value="LIEFERT" style="shape=rhombus;perimeter=rhombusPerimeter;whiteSpace=wrap;html=1;align=center;gradientColor=#97d077;fillColor=#d5e8d4;strokeColor=#82b366;" parent="1" vertex="1">
          <mxGeometry x="-570" y="300" width="120" height="60" as="geometry" />
        </mxCell>
        <mxCell id="_luehlbGn4RRNLjj8hbX-39" style="endArrow=none;html=1;fontFamily=Helvetica;fontSize=11;fontColor=#000000;align=center;strokeColor=#000000;edgeStyle=orthogonalEdgeStyle;" parent="1" source="_luehlbGn4RRNLjj8hbX-38" target="_luehlbGn4RRNLjj8hbX-2" edge="1">
          <mxGeometry relative="1" as="geometry">
            <Array as="points">
              <mxPoint x="-380" y="650" />
              <mxPoint x="-380" y="500" />
            </Array>
          </mxGeometry>
        </mxCell>
        <mxCell id="_luehlbGn4RRNLjj8hbX-40" style="endArrow=none;html=1;fontFamily=Helvetica;fontSize=11;fontColor=#000000;align=center;strokeColor=#000000;edgeStyle=orthogonalEdgeStyle;" parent="1" source="_luehlbGn4RRNLjj8hbX-38" target="_luehlbGn4RRNLjj8hbX-6" edge="1">
          <mxGeometry relative="1" as="geometry">
            <Array as="points">
              <mxPoint x="50" y="650" />
            </Array>
          </mxGeometry>
        </mxCell>
        <mxCell id="_luehlbGn4RRNLjj8hbX-38" value="ENTHÄLT" style="shape=rhombus;perimeter=rhombusPerimeter;whiteSpace=wrap;html=1;align=center;gradientColor=#97d077;fillColor=#d5e8d4;strokeColor=#82b366;" parent="1" vertex="1">
          <mxGeometry x="-270" y="620" width="120" height="60" as="geometry" />
        </mxCell>
        <mxCell id="_luehlbGn4RRNLjj8hbX-41" value="&lt;u&gt;BestellNR&lt;/u&gt;" style="ellipse;whiteSpace=wrap;html=1;align=center;fillColor=#ffe6cc;strokeColor=#d79b00;" parent="1" vertex="1">
          <mxGeometry x="-180" y="860" width="100" height="40" as="geometry" />
        </mxCell>
        <mxCell id="_luehlbGn4RRNLjj8hbX-42" value="Bestelldatum" style="ellipse;whiteSpace=wrap;html=1;align=center;" parent="1" vertex="1">
          <mxGeometry x="-60" y="930" width="100" height="40" as="geometry" />
        </mxCell>
        <mxCell id="_luehlbGn4RRNLjj8hbX-43" value="Rechnungsbetrag" style="ellipse;whiteSpace=wrap;html=1;align=center;" parent="1" vertex="1">
          <mxGeometry x="90" y="940" width="100" height="40" as="geometry" />
        </mxCell>
        <mxCell id="_luehlbGn4RRNLjj8hbX-47" value="KundenNR" style="ellipse;whiteSpace=wrap;html=1;align=center;fontStyle=4;fillColor=#ffe6cc;strokeColor=#d79b00;" parent="1" vertex="1">
          <mxGeometry x="340" y="890" width="100" height="40" as="geometry" />
        </mxCell>
        <mxCell id="_luehlbGn4RRNLjj8hbX-50" value="Vorname" style="ellipse;whiteSpace=wrap;html=1;align=center;" parent="1" vertex="1">
          <mxGeometry x="630" y="840" width="100" height="40" as="geometry" />
        </mxCell>
        <mxCell id="_luehlbGn4RRNLjj8hbX-51" value="Nachname" style="ellipse;whiteSpace=wrap;html=1;align=center;" parent="1" vertex="1">
          <mxGeometry x="500" y="900" width="100" height="40" as="geometry" />
        </mxCell>
        <mxCell id="_luehlbGn4RRNLjj8hbX-52" value="Geburtsdatum" style="ellipse;whiteSpace=wrap;html=1;align=center;" parent="1" vertex="1">
          <mxGeometry x="730" y="770" width="100" height="40" as="geometry" />
        </mxCell>
        <mxCell id="_luehlbGn4RRNLjj8hbX-53" value="Straße" style="ellipse;whiteSpace=wrap;html=1;align=center;" parent="1" vertex="1">
          <mxGeometry x="780" y="660" width="100" height="40" as="geometry" />
        </mxCell>
        <mxCell id="_luehlbGn4RRNLjj8hbX-54" value="Hausnummer" style="ellipse;whiteSpace=wrap;html=1;align=center;" parent="1" vertex="1">
          <mxGeometry x="800" y="560" width="100" height="40" as="geometry" />
        </mxCell>
        <mxCell id="_luehlbGn4RRNLjj8hbX-55" value="PLZ" style="ellipse;whiteSpace=wrap;html=1;align=center;" parent="1" vertex="1">
          <mxGeometry x="810" y="460" width="100" height="40" as="geometry" />
        </mxCell>
        <mxCell id="_luehlbGn4RRNLjj8hbX-56" value="Ort" style="ellipse;whiteSpace=wrap;html=1;align=center;" parent="1" vertex="1">
          <mxGeometry x="660" y="430" width="100" height="40" as="geometry" />
        </mxCell>
        <mxCell id="_luehlbGn4RRNLjj8hbX-67" style="endArrow=none;html=1;fontFamily=Helvetica;fontSize=11;fontColor=#000000;align=center;strokeColor=#000000;edgeStyle=orthogonalEdgeStyle;" parent="1" source="_luehlbGn4RRNLjj8hbX-66" target="_luehlbGn4RRNLjj8hbX-6" edge="1">
          <mxGeometry relative="1" as="geometry">
            <Array as="points">
              <mxPoint x="90" y="690" />
            </Array>
          </mxGeometry>
        </mxCell>
        <mxCell id="_luehlbGn4RRNLjj8hbX-68" style="endArrow=none;html=1;fontFamily=Helvetica;fontSize=11;fontColor=#000000;align=center;strokeColor=#000000;edgeStyle=orthogonalEdgeStyle;" parent="1" source="_luehlbGn4RRNLjj8hbX-66" target="_luehlbGn4RRNLjj8hbX-3" edge="1">
          <mxGeometry relative="1" as="geometry" />
        </mxCell>
        <mxCell id="_luehlbGn4RRNLjj8hbX-66" value="TÄTIGT" style="shape=rhombus;perimeter=rhombusPerimeter;whiteSpace=wrap;html=1;align=center;gradientColor=#97d077;fillColor=#d5e8d4;strokeColor=#82b366;" parent="1" vertex="1">
          <mxGeometry x="190" y="660" width="120" height="60" as="geometry" />
        </mxCell>
        <mxCell id="r7EtD0Q_jqWw8B3kofkO-3" value="" style="endArrow=none;html=1;fontFamily=Helvetica;fontSize=11;fontColor=#000000;align=center;strokeColor=#000000;edgeStyle=orthogonalEdgeStyle;" parent="1" source="r7EtD0Q_jqWw8B3kofkO-1" target="r7EtD0Q_jqWw8B3kofkO-2" edge="1">
          <mxGeometry relative="1" as="geometry" />
        </mxCell>
        <mxCell id="r7EtD0Q_jqWw8B3kofkO-9" value="" style="endArrow=none;html=1;fontFamily=Helvetica;fontSize=11;fontColor=#000000;align=center;strokeColor=#000000;edgeStyle=orthogonalEdgeStyle;" parent="1" source="r7EtD0Q_jqWw8B3kofkO-1" target="r7EtD0Q_jqWw8B3kofkO-8" edge="1">
          <mxGeometry relative="1" as="geometry" />
        </mxCell>
        <mxCell id="r7EtD0Q_jqWw8B3kofkO-1" value="Ernährungskategorie" style="whiteSpace=wrap;html=1;align=center;gradientColor=#b3b3b3;fillColor=#f5f5f5;strokeColor=#666666;" parent="1" vertex="1">
          <mxGeometry x="-170" y="390" width="120" height="40" as="geometry" />
        </mxCell>
        <mxCell id="r7EtD0Q_jqWw8B3kofkO-2" value="&lt;u&gt;KategorieID&lt;/u&gt;" style="ellipse;whiteSpace=wrap;html=1;fillColor=#ffe6cc;strokeColor=#d79b00;" parent="1" vertex="1">
          <mxGeometry x="-170" y="500" width="120" height="50" as="geometry" />
        </mxCell>
        <mxCell id="r7EtD0Q_jqWw8B3kofkO-5" value="Ernährungstyp" style="ellipse;whiteSpace=wrap;html=1;" parent="1" vertex="1">
          <mxGeometry y="460" width="110" height="40" as="geometry" />
        </mxCell>
        <mxCell id="r7EtD0Q_jqWw8B3kofkO-10" style="endArrow=none;html=1;fontFamily=Helvetica;fontSize=11;fontColor=#000000;align=center;strokeColor=#000000;edgeStyle=orthogonalEdgeStyle;" parent="1" source="r7EtD0Q_jqWw8B3kofkO-8" target="_luehlbGn4RRNLjj8hbX-2" edge="1">
          <mxGeometry relative="1" as="geometry" />
        </mxCell>
        <mxCell id="r7EtD0Q_jqWw8B3kofkO-8" value="gehört zu" style="rhombus;whiteSpace=wrap;html=1;gradientColor=#97d077;fillColor=#d5e8d4;strokeColor=#82b366;" parent="1" vertex="1">
          <mxGeometry x="-360" y="410" width="110" height="60" as="geometry" />
        </mxCell>
        <mxCell id="r7EtD0Q_jqWw8B3kofkO-11" style="edgeStyle=orthogonalEdgeStyle;rounded=0;orthogonalLoop=1;jettySize=auto;html=1;exitX=0.5;exitY=1;exitDx=0;exitDy=0;" parent="1" source="r7EtD0Q_jqWw8B3kofkO-8" target="r7EtD0Q_jqWw8B3kofkO-8" edge="1">
          <mxGeometry relative="1" as="geometry" />
        </mxCell>
        <mxCell id="r7EtD0Q_jqWw8B3kofkO-13" style="endArrow=none;html=1;fontFamily=Helvetica;fontSize=11;fontColor=#000000;align=center;strokeColor=#000000;edgeStyle=orthogonalEdgeStyle;" parent="1" source="r7EtD0Q_jqWw8B3kofkO-12" target="r7EtD0Q_jqWw8B3kofkO-1" edge="1">
          <mxGeometry relative="1" as="geometry" />
        </mxCell>
        <mxCell id="r7EtD0Q_jqWw8B3kofkO-17" value="" style="endArrow=none;html=1;fontFamily=Helvetica;fontSize=11;fontColor=#000000;align=center;strokeColor=#000000;edgeStyle=orthogonalEdgeStyle;" parent="1" source="r7EtD0Q_jqWw8B3kofkO-12" target="r7EtD0Q_jqWw8B3kofkO-16" edge="1">
          <mxGeometry relative="1" as="geometry" />
        </mxCell>
        <mxCell id="r7EtD0Q_jqWw8B3kofkO-12" value="Rezept" style="whiteSpace=wrap;html=1;align=center;gradientColor=#b3b3b3;fillColor=#f5f5f5;strokeColor=#666666;" parent="1" vertex="1">
          <mxGeometry x="140" y="310" width="100" height="40" as="geometry" />
        </mxCell>
        <mxCell id="r7EtD0Q_jqWw8B3kofkO-14" value="&lt;u&gt;RezeptID&lt;/u&gt;" style="ellipse;whiteSpace=wrap;html=1;fillColor=#ffe6cc;strokeColor=#d79b00;" parent="1" vertex="1">
          <mxGeometry x="90" y="210" width="120" height="40" as="geometry" />
        </mxCell>
        <mxCell id="r7EtD0Q_jqWw8B3kofkO-21" value="" style="endArrow=none;html=1;fontFamily=Helvetica;fontSize=11;fontColor=#000000;align=center;strokeColor=#000000;edgeStyle=orthogonalEdgeStyle;" parent="1" source="r7EtD0Q_jqWw8B3kofkO-16" target="r7EtD0Q_jqWw8B3kofkO-20" edge="1">
          <mxGeometry relative="1" as="geometry" />
        </mxCell>
        <mxCell id="r7EtD0Q_jqWw8B3kofkO-16" value="Allergien" style="whiteSpace=wrap;html=1;align=center;gradientColor=#b3b3b3;fillColor=#f5f5f5;strokeColor=#666666;" parent="1" vertex="1">
          <mxGeometry x="390" y="120" width="100" height="40" as="geometry" />
        </mxCell>
        <mxCell id="r7EtD0Q_jqWw8B3kofkO-18" value="&lt;u&gt;AllergieID&lt;/u&gt;" style="ellipse;whiteSpace=wrap;html=1;fillColor=#ffe6cc;strokeColor=#d79b00;" parent="1" vertex="1">
          <mxGeometry x="240" y="60" width="100" height="40" as="geometry" />
        </mxCell>
        <mxCell id="r7EtD0Q_jqWw8B3kofkO-20" value="Allergie" style="ellipse;whiteSpace=wrap;html=1;" parent="1" vertex="1">
          <mxGeometry x="380" y="10" width="120" height="40" as="geometry" />
        </mxCell>
        <mxCell id="r7EtD0Q_jqWw8B3kofkO-24" value="&lt;u&gt;&lt;font style=&quot;font-size: 22px&quot;&gt;Primary Key&lt;/font&gt;&lt;/u&gt;" style="text;html=1;strokeColor=none;fillColor=none;align=center;verticalAlign=middle;whiteSpace=wrap;rounded=0;" parent="1" vertex="1">
          <mxGeometry x="1030" y="60" width="190" height="80" as="geometry" />
        </mxCell>
        <mxCell id="B8Npd3-7YXTBfn0NrpcC-1" value="" style="rhombus;whiteSpace=wrap;html=1;fillColor=#d5e8d4;strokeColor=#82b366;" parent="1" vertex="1">
          <mxGeometry x="930" y="140" width="110" height="50" as="geometry" />
        </mxCell>
        <mxCell id="B8Npd3-7YXTBfn0NrpcC-2" value="" style="rounded=0;whiteSpace=wrap;html=1;fillColor=#f5f5f5;strokeColor=#666666;gradientColor=#b3b3b3;" parent="1" vertex="1">
          <mxGeometry x="935" y="205" width="100" height="50" as="geometry" />
        </mxCell>
        <mxCell id="B8Npd3-7YXTBfn0NrpcC-3" value="&lt;span style=&quot;font-size: 22px&quot;&gt;Relation&lt;/span&gt;" style="text;html=1;strokeColor=none;fillColor=none;align=center;verticalAlign=middle;whiteSpace=wrap;rounded=0;strokeWidth=22;" parent="1" vertex="1">
          <mxGeometry x="1070" y="147.5" width="100" height="35" as="geometry" />
        </mxCell>
        <mxCell id="B8Npd3-7YXTBfn0NrpcC-4" value="&lt;font style=&quot;font-size: 22px&quot;&gt;Entity&lt;/font&gt;" style="text;html=1;strokeColor=none;fillColor=none;align=center;verticalAlign=middle;whiteSpace=wrap;rounded=0;" parent="1" vertex="1">
          <mxGeometry x="1080" y="220" width="40" height="20" as="geometry" />
        </mxCell>
        <mxCell id="agOr2iN0h2jyaIKl_TcS-1" value="1" style="text;html=1;align=center;verticalAlign=middle;resizable=0;points=[];autosize=1;strokeColor=none;fillColor=none;" parent="1" vertex="1">
          <mxGeometry x="-470" y="260" width="20" height="20" as="geometry" />
        </mxCell>
        <mxCell id="agOr2iN0h2jyaIKl_TcS-2" value="n" style="text;html=1;align=center;verticalAlign=middle;resizable=0;points=[];autosize=1;strokeColor=none;fillColor=none;" parent="1" vertex="1">
          <mxGeometry x="-510" y="390" width="20" height="20" as="geometry" />
        </mxCell>
        <mxCell id="agOr2iN0h2jyaIKl_TcS-3" value="n" style="text;html=1;align=center;verticalAlign=middle;resizable=0;points=[];autosize=1;strokeColor=none;fillColor=none;" parent="1" vertex="1">
          <mxGeometry x="-420" y="420" width="20" height="20" as="geometry" />
        </mxCell>
        <mxCell id="agOr2iN0h2jyaIKl_TcS-4" value="m" style="text;html=1;align=center;verticalAlign=middle;resizable=0;points=[];autosize=1;strokeColor=none;fillColor=none;" parent="1" vertex="1">
          <mxGeometry x="-235" y="410" width="30" height="20" as="geometry" />
        </mxCell>
        <mxCell id="agOr2iN0h2jyaIKl_TcS-5" value="n" style="text;html=1;align=center;verticalAlign=middle;resizable=0;points=[];autosize=1;strokeColor=none;fillColor=none;" parent="1" vertex="1">
          <mxGeometry x="-100" y="340" width="20" height="20" as="geometry" />
        </mxCell>
        <mxCell id="agOr2iN0h2jyaIKl_TcS-6" value="m" style="text;html=1;align=center;verticalAlign=middle;resizable=0;points=[];autosize=1;strokeColor=none;fillColor=none;" parent="1" vertex="1">
          <mxGeometry x="85" y="310" width="30" height="20" as="geometry" />
        </mxCell>
        <mxCell id="agOr2iN0h2jyaIKl_TcS-7" value="n" style="text;html=1;align=center;verticalAlign=middle;resizable=0;points=[];autosize=1;strokeColor=none;fillColor=none;" parent="1" vertex="1">
          <mxGeometry x="270" y="310" width="20" height="20" as="geometry" />
        </mxCell>
        <mxCell id="agOr2iN0h2jyaIKl_TcS-8" value="m" style="text;html=1;align=center;verticalAlign=middle;resizable=0;points=[];autosize=1;strokeColor=none;fillColor=none;" parent="1" vertex="1">
          <mxGeometry x="415" y="180" width="30" height="20" as="geometry" />
        </mxCell>
        <mxCell id="agOr2iN0h2jyaIKl_TcS-20" value="n" style="text;html=1;align=center;verticalAlign=middle;resizable=0;points=[];autosize=1;strokeColor=none;fillColor=none;" parent="1" vertex="1">
          <mxGeometry x="-460" y="510" width="20" height="20" as="geometry" />
        </mxCell>
        <mxCell id="agOr2iN0h2jyaIKl_TcS-21" value="m" style="text;html=1;align=center;verticalAlign=middle;resizable=0;points=[];autosize=1;strokeColor=none;fillColor=none;" parent="1" vertex="1">
          <mxGeometry x="10" y="730" width="30" height="20" as="geometry" />
        </mxCell>
        <mxCell id="agOr2iN0h2jyaIKl_TcS-22" value="1" style="text;html=1;align=center;verticalAlign=middle;resizable=0;points=[];autosize=1;strokeColor=none;fillColor=none;" parent="1" vertex="1">
          <mxGeometry x="380" y="660" width="20" height="20" as="geometry" />
        </mxCell>
        <mxCell id="agOr2iN0h2jyaIKl_TcS-23" value="n" style="text;html=1;align=center;verticalAlign=middle;resizable=0;points=[];autosize=1;strokeColor=none;fillColor=none;" parent="1" vertex="1">
          <mxGeometry x="90" y="740" width="20" height="20" as="geometry" />
        </mxCell>
        <mxCell id="agOr2iN0h2jyaIKl_TcS-25" style="endArrow=none;html=1;fontFamily=Helvetica;fontSize=11;fontColor=#000000;align=center;strokeColor=#000000;" parent="1" source="agOr2iN0h2jyaIKl_TcS-24" target="r7EtD0Q_jqWw8B3kofkO-12" edge="1">
          <mxGeometry relative="1" as="geometry" />
        </mxCell>
        <mxCell id="agOr2iN0h2jyaIKl_TcS-24" value="Rezeptname" style="ellipse;whiteSpace=wrap;html=1;" parent="1" vertex="1">
          <mxGeometry x="170" y="400" width="110" height="40" as="geometry" />
        </mxCell>
        <mxCell id="agOr2iN0h2jyaIKl_TcS-31" value="" style="endArrow=none;html=1;rounded=0;entryX=1;entryY=0.75;entryDx=0;entryDy=0;exitX=0;exitY=0;exitDx=0;exitDy=0;" parent="1" source="r7EtD0Q_jqWw8B3kofkO-5" target="r7EtD0Q_jqWw8B3kofkO-1" edge="1">
          <mxGeometry width="50" height="50" relative="1" as="geometry">
            <mxPoint x="-50" y="480" as="sourcePoint" />
            <mxPoint y="430" as="targetPoint" />
          </mxGeometry>
        </mxCell>
        <mxCell id="agOr2iN0h2jyaIKl_TcS-32" value="" style="endArrow=none;html=1;rounded=0;entryX=0.5;entryY=1;entryDx=0;entryDy=0;exitX=0.5;exitY=0;exitDx=0;exitDy=0;" parent="1" source="r7EtD0Q_jqWw8B3kofkO-12" target="r7EtD0Q_jqWw8B3kofkO-14" edge="1">
          <mxGeometry width="50" height="50" relative="1" as="geometry">
            <mxPoint x="150" y="300" as="sourcePoint" />
            <mxPoint x="200" y="250" as="targetPoint" />
          </mxGeometry>
        </mxCell>
        <mxCell id="agOr2iN0h2jyaIKl_TcS-34" value="" style="endArrow=none;html=1;rounded=0;entryX=1;entryY=1;entryDx=0;entryDy=0;exitX=0;exitY=0.5;exitDx=0;exitDy=0;" parent="1" source="r7EtD0Q_jqWw8B3kofkO-16" target="r7EtD0Q_jqWw8B3kofkO-18" edge="1">
          <mxGeometry width="50" height="50" relative="1" as="geometry">
            <mxPoint x="310" y="160" as="sourcePoint" />
            <mxPoint x="360" y="110" as="targetPoint" />
          </mxGeometry>
        </mxCell>
        <mxCell id="agOr2iN0h2jyaIKl_TcS-35" value="" style="endArrow=none;html=1;rounded=0;entryX=0;entryY=0.5;entryDx=0;entryDy=0;exitX=1;exitY=0.5;exitDx=0;exitDy=0;" parent="1" source="_luehlbGn4RRNLjj8hbX-11" target="_luehlbGn4RRNLjj8hbX-1" edge="1">
          <mxGeometry width="50" height="50" relative="1" as="geometry">
            <mxPoint x="-620" y="250" as="sourcePoint" />
            <mxPoint x="-570" y="200" as="targetPoint" />
          </mxGeometry>
        </mxCell>
        <mxCell id="agOr2iN0h2jyaIKl_TcS-36" value="" style="endArrow=none;html=1;rounded=0;entryX=0.957;entryY=0.882;entryDx=0;entryDy=0;entryPerimeter=0;exitX=0.25;exitY=0;exitDx=0;exitDy=0;" parent="1" source="_luehlbGn4RRNLjj8hbX-1" target="_luehlbGn4RRNLjj8hbX-7" edge="1">
          <mxGeometry width="50" height="50" relative="1" as="geometry">
            <mxPoint x="-620" y="160" as="sourcePoint" />
            <mxPoint x="-570" y="110" as="targetPoint" />
          </mxGeometry>
        </mxCell>
        <mxCell id="agOr2iN0h2jyaIKl_TcS-37" value="" style="endArrow=none;html=1;rounded=0;entryX=0.5;entryY=1;entryDx=0;entryDy=0;exitX=0.5;exitY=0;exitDx=0;exitDy=0;" parent="1" source="_luehlbGn4RRNLjj8hbX-1" target="_luehlbGn4RRNLjj8hbX-9" edge="1">
          <mxGeometry width="50" height="50" relative="1" as="geometry">
            <mxPoint x="-520" y="160" as="sourcePoint" />
            <mxPoint x="-470" y="110" as="targetPoint" />
          </mxGeometry>
        </mxCell>
        <mxCell id="agOr2iN0h2jyaIKl_TcS-38" value="" style="endArrow=none;html=1;rounded=0;entryX=0.5;entryY=1;entryDx=0;entryDy=0;exitX=0.75;exitY=0;exitDx=0;exitDy=0;" parent="1" source="_luehlbGn4RRNLjj8hbX-1" target="_luehlbGn4RRNLjj8hbX-10" edge="1">
          <mxGeometry width="50" height="50" relative="1" as="geometry">
            <mxPoint x="-430" y="170" as="sourcePoint" />
            <mxPoint x="-380" y="120" as="targetPoint" />
          </mxGeometry>
        </mxCell>
        <mxCell id="agOr2iN0h2jyaIKl_TcS-39" value="" style="endArrow=none;html=1;rounded=0;entryX=0;entryY=0;entryDx=0;entryDy=0;exitX=0.75;exitY=1;exitDx=0;exitDy=0;" parent="1" source="_luehlbGn4RRNLjj8hbX-1" target="_luehlbGn4RRNLjj8hbX-12" edge="1">
          <mxGeometry width="50" height="50" relative="1" as="geometry">
            <mxPoint x="-340" y="200" as="sourcePoint" />
            <mxPoint x="-290" y="150" as="targetPoint" />
          </mxGeometry>
        </mxCell>
        <mxCell id="agOr2iN0h2jyaIKl_TcS-41" value="" style="endArrow=none;html=1;rounded=0;entryX=0;entryY=0.75;entryDx=0;entryDy=0;exitX=1;exitY=0;exitDx=0;exitDy=0;" parent="1" source="_luehlbGn4RRNLjj8hbX-41" target="_luehlbGn4RRNLjj8hbX-6" edge="1">
          <mxGeometry width="50" height="50" relative="1" as="geometry">
            <mxPoint x="-90" y="840" as="sourcePoint" />
            <mxPoint x="-40" y="790" as="targetPoint" />
          </mxGeometry>
        </mxCell>
        <mxCell id="agOr2iN0h2jyaIKl_TcS-42" value="" style="endArrow=none;html=1;rounded=0;exitX=0.6;exitY=-0.011;exitDx=0;exitDy=0;exitPerimeter=0;" parent="1" source="_luehlbGn4RRNLjj8hbX-42" target="_luehlbGn4RRNLjj8hbX-6" edge="1">
          <mxGeometry width="50" height="50" relative="1" as="geometry">
            <mxPoint x="40" y="910" as="sourcePoint" />
            <mxPoint x="90" y="860" as="targetPoint" />
          </mxGeometry>
        </mxCell>
        <mxCell id="agOr2iN0h2jyaIKl_TcS-43" value="" style="endArrow=none;html=1;rounded=0;exitX=0.5;exitY=0;exitDx=0;exitDy=0;" parent="1" source="_luehlbGn4RRNLjj8hbX-43" target="_luehlbGn4RRNLjj8hbX-6" edge="1">
          <mxGeometry width="50" height="50" relative="1" as="geometry">
            <mxPoint x="130" y="890" as="sourcePoint" />
            <mxPoint x="180" y="840" as="targetPoint" />
          </mxGeometry>
        </mxCell>
        <mxCell id="agOr2iN0h2jyaIKl_TcS-44" value="" style="endArrow=none;html=1;rounded=0;entryX=0;entryY=1;entryDx=0;entryDy=0;exitX=0.75;exitY=0;exitDx=0;exitDy=0;" parent="1" source="_luehlbGn4RRNLjj8hbX-3" target="_luehlbGn4RRNLjj8hbX-56" edge="1">
          <mxGeometry width="50" height="50" relative="1" as="geometry">
            <mxPoint x="640" y="610" as="sourcePoint" />
            <mxPoint x="690" y="560" as="targetPoint" />
          </mxGeometry>
        </mxCell>
        <mxCell id="agOr2iN0h2jyaIKl_TcS-45" value="" style="endArrow=none;html=1;rounded=0;entryX=0;entryY=1;entryDx=0;entryDy=0;exitX=1;exitY=0;exitDx=0;exitDy=0;" parent="1" source="_luehlbGn4RRNLjj8hbX-3" target="_luehlbGn4RRNLjj8hbX-55" edge="1">
          <mxGeometry width="50" height="50" relative="1" as="geometry">
            <mxPoint x="690" y="590" as="sourcePoint" />
            <mxPoint x="740" y="540" as="targetPoint" />
          </mxGeometry>
        </mxCell>
        <mxCell id="agOr2iN0h2jyaIKl_TcS-46" value="" style="endArrow=none;html=1;rounded=0;entryX=0;entryY=0.5;entryDx=0;entryDy=0;exitX=1;exitY=0.25;exitDx=0;exitDy=0;" parent="1" source="_luehlbGn4RRNLjj8hbX-3" target="_luehlbGn4RRNLjj8hbX-54" edge="1">
          <mxGeometry width="50" height="50" relative="1" as="geometry">
            <mxPoint x="690" y="680" as="sourcePoint" />
            <mxPoint x="740" y="630" as="targetPoint" />
          </mxGeometry>
        </mxCell>
        <mxCell id="agOr2iN0h2jyaIKl_TcS-47" value="" style="endArrow=none;html=1;rounded=0;entryX=0;entryY=0.5;entryDx=0;entryDy=0;exitX=1;exitY=0.5;exitDx=0;exitDy=0;" parent="1" source="_luehlbGn4RRNLjj8hbX-3" target="_luehlbGn4RRNLjj8hbX-53" edge="1">
          <mxGeometry width="50" height="50" relative="1" as="geometry">
            <mxPoint x="610" y="740" as="sourcePoint" />
            <mxPoint x="660" y="690" as="targetPoint" />
          </mxGeometry>
        </mxCell>
        <mxCell id="agOr2iN0h2jyaIKl_TcS-48" value="" style="endArrow=none;html=1;rounded=0;exitX=1;exitY=1;exitDx=0;exitDy=0;entryX=0;entryY=0;entryDx=0;entryDy=0;" parent="1" source="_luehlbGn4RRNLjj8hbX-3" target="_luehlbGn4RRNLjj8hbX-52" edge="1">
          <mxGeometry width="50" height="50" relative="1" as="geometry">
            <mxPoint x="580" y="770" as="sourcePoint" />
            <mxPoint x="720" y="790" as="targetPoint" />
          </mxGeometry>
        </mxCell>
        <mxCell id="agOr2iN0h2jyaIKl_TcS-49" value="" style="endArrow=none;html=1;rounded=0;entryX=0;entryY=0;entryDx=0;entryDy=0;exitX=0.75;exitY=1;exitDx=0;exitDy=0;" parent="1" source="_luehlbGn4RRNLjj8hbX-3" target="_luehlbGn4RRNLjj8hbX-50" edge="1">
          <mxGeometry width="50" height="50" relative="1" as="geometry">
            <mxPoint x="490" y="800" as="sourcePoint" />
            <mxPoint x="540" y="750" as="targetPoint" />
          </mxGeometry>
        </mxCell>
        <mxCell id="agOr2iN0h2jyaIKl_TcS-50" value="" style="endArrow=none;html=1;rounded=0;entryX=0.5;entryY=0;entryDx=0;entryDy=0;exitX=0.5;exitY=1;exitDx=0;exitDy=0;" parent="1" source="_luehlbGn4RRNLjj8hbX-3" target="_luehlbGn4RRNLjj8hbX-51" edge="1">
          <mxGeometry width="50" height="50" relative="1" as="geometry">
            <mxPoint x="450" y="850" as="sourcePoint" />
            <mxPoint x="500" y="800" as="targetPoint" />
          </mxGeometry>
        </mxCell>
        <mxCell id="agOr2iN0h2jyaIKl_TcS-51" value="" style="endArrow=none;html=1;rounded=0;entryX=0.25;entryY=1;entryDx=0;entryDy=0;exitX=0.5;exitY=0;exitDx=0;exitDy=0;" parent="1" source="_luehlbGn4RRNLjj8hbX-47" target="_luehlbGn4RRNLjj8hbX-3" edge="1">
          <mxGeometry width="50" height="50" relative="1" as="geometry">
            <mxPoint x="350" y="840" as="sourcePoint" />
            <mxPoint x="400" y="790" as="targetPoint" />
          </mxGeometry>
        </mxCell>
        <mxCell id="agOr2iN0h2jyaIKl_TcS-52" value="Lieferant" style="ellipse;whiteSpace=wrap;html=1;align=center;" parent="1" vertex="1">
          <mxGeometry x="-730" y="300" width="100" height="40" as="geometry" />
        </mxCell>
        <mxCell id="agOr2iN0h2jyaIKl_TcS-53" value="" style="endArrow=none;html=1;rounded=0;entryX=1;entryY=1;entryDx=0;entryDy=0;exitX=0.25;exitY=0;exitDx=0;exitDy=0;" parent="1" source="_luehlbGn4RRNLjj8hbX-2" target="agOr2iN0h2jyaIKl_TcS-52" edge="1">
          <mxGeometry width="50" height="50" relative="1" as="geometry">
            <mxPoint x="-620" y="410" as="sourcePoint" />
            <mxPoint x="-570" y="360" as="targetPoint" />
          </mxGeometry>
        </mxCell>
        <mxCell id="agOr2iN0h2jyaIKl_TcS-54" value="&lt;div&gt;Email&lt;/div&gt;" style="ellipse;whiteSpace=wrap;html=1;align=center;" parent="1" vertex="1">
          <mxGeometry x="-205" y="220" width="100" height="40" as="geometry" />
        </mxCell>
        <mxCell id="agOr2iN0h2jyaIKl_TcS-55" value="Straße" style="ellipse;whiteSpace=wrap;html=1;align=center;" parent="1" vertex="1">
          <mxGeometry x="-335" y="70" width="100" height="40" as="geometry" />
        </mxCell>
        <mxCell id="agOr2iN0h2jyaIKl_TcS-56" value="Telefon" style="ellipse;whiteSpace=wrap;html=1;align=center;" parent="1" vertex="1">
          <mxGeometry x="-220" y="140" width="100" height="40" as="geometry" />
        </mxCell>
        <mxCell id="agOr2iN0h2jyaIKl_TcS-57" value="" style="endArrow=none;html=1;rounded=0;entryX=0;entryY=0.5;entryDx=0;entryDy=0;exitX=1;exitY=1;exitDx=0;exitDy=0;" parent="1" source="_luehlbGn4RRNLjj8hbX-1" target="agOr2iN0h2jyaIKl_TcS-54" edge="1">
          <mxGeometry width="50" height="50" relative="1" as="geometry">
            <mxPoint x="-350" y="240" as="sourcePoint" />
            <mxPoint x="-300" y="190" as="targetPoint" />
          </mxGeometry>
        </mxCell>
        <mxCell id="agOr2iN0h2jyaIKl_TcS-58" value="" style="endArrow=none;html=1;rounded=0;entryX=0;entryY=1;entryDx=0;entryDy=0;exitX=1;exitY=0.5;exitDx=0;exitDy=0;" parent="1" source="_luehlbGn4RRNLjj8hbX-1" target="agOr2iN0h2jyaIKl_TcS-56" edge="1">
          <mxGeometry width="50" height="50" relative="1" as="geometry">
            <mxPoint x="-360" y="200" as="sourcePoint" />
            <mxPoint x="-310" y="150" as="targetPoint" />
          </mxGeometry>
        </mxCell>
        <mxCell id="agOr2iN0h2jyaIKl_TcS-60" value="" style="endArrow=none;html=1;rounded=0;entryX=0;entryY=1;entryDx=0;entryDy=0;exitX=1;exitY=0;exitDx=0;exitDy=0;" parent="1" source="_luehlbGn4RRNLjj8hbX-1" target="agOr2iN0h2jyaIKl_TcS-55" edge="1">
          <mxGeometry width="50" height="50" relative="1" as="geometry">
            <mxPoint x="-400" y="190" as="sourcePoint" />
            <mxPoint x="-350" y="140" as="targetPoint" />
          </mxGeometry>
        </mxCell>
        <mxCell id="agOr2iN0h2jyaIKl_TcS-61" value="&lt;u&gt;KundenNR&lt;/u&gt;" style="ellipse;whiteSpace=wrap;html=1;align=center;" parent="1" vertex="1">
          <mxGeometry x="175" y="850" width="100" height="40" as="geometry" />
        </mxCell>
        <mxCell id="agOr2iN0h2jyaIKl_TcS-62" value="" style="endArrow=none;html=1;rounded=0;entryX=1;entryY=0.75;entryDx=0;entryDy=0;" parent="1" source="agOr2iN0h2jyaIKl_TcS-61" target="_luehlbGn4RRNLjj8hbX-6" edge="1">
          <mxGeometry width="50" height="50" relative="1" as="geometry">
            <mxPoint x="150" y="850" as="sourcePoint" />
            <mxPoint x="200" y="800" as="targetPoint" />
          </mxGeometry>
        </mxCell>
        <mxCell id="A-02325XhEpWEsaKhlx_-1" value="&lt;u&gt;&amp;nbsp;&amp;nbsp;&amp;nbsp;&amp;nbsp;&amp;nbsp;&amp;nbsp;&amp;nbsp;&amp;nbsp;&amp;nbsp;&amp;nbsp;&amp;nbsp;&amp;nbsp;&amp;nbsp;&amp;nbsp;&amp;nbsp;&amp;nbsp;&amp;nbsp;&amp;nbsp;&amp;nbsp;&amp;nbsp;&amp;nbsp;&amp;nbsp;&amp;nbsp;&amp;nbsp;&amp;nbsp; &lt;br&gt;&lt;/u&gt;" style="ellipse;whiteSpace=wrap;html=1;align=center;" parent="1" vertex="1">
          <mxGeometry x="940" y="295" width="105" height="50" as="geometry" />
        </mxCell>
        <mxCell id="A-02325XhEpWEsaKhlx_-2" value="&lt;u&gt;&lt;font style=&quot;font-size: 22px&quot;&gt;Foreign Key&lt;/font&gt;&lt;/u&gt;" style="text;html=1;strokeColor=none;fillColor=none;align=center;verticalAlign=middle;whiteSpace=wrap;rounded=0;" parent="1" vertex="1">
          <mxGeometry x="1050" y="300" width="150" height="30" as="geometry" />
        </mxCell>
        <mxCell id="A-02325XhEpWEsaKhlx_-3" value="&lt;u&gt;&amp;nbsp;&amp;nbsp;&amp;nbsp;&amp;nbsp;&amp;nbsp;&amp;nbsp;&amp;nbsp;&amp;nbsp;&amp;nbsp;&amp;nbsp;&amp;nbsp;&amp;nbsp;&amp;nbsp;&amp;nbsp;&amp;nbsp;&amp;nbsp;&amp;nbsp;&amp;nbsp;&amp;nbsp;&amp;nbsp;&amp;nbsp;&amp;nbsp;&amp;nbsp;&amp;nbsp;&amp;nbsp; &lt;br&gt;&lt;/u&gt;" style="ellipse;whiteSpace=wrap;html=1;align=center;fillColor=#ffe6cc;strokeColor=#d79b00;" parent="1" vertex="1">
          <mxGeometry x="930" y="75" width="105" height="50" as="geometry" />
        </mxCell>
        <mxCell id="A-02325XhEpWEsaKhlx_-4" value="Email" style="ellipse;whiteSpace=wrap;html=1;align=center;" parent="1" vertex="1">
          <mxGeometry x="360" y="430" width="100" height="40" as="geometry" />
        </mxCell>
        <mxCell id="A-02325XhEpWEsaKhlx_-5" value="Telefon" style="ellipse;whiteSpace=wrap;html=1;align=center;" parent="1" vertex="1">
          <mxGeometry x="490" y="430" width="100" height="40" as="geometry" />
        </mxCell>
        <mxCell id="A-02325XhEpWEsaKhlx_-6" value="" style="endArrow=none;html=1;rounded=0;fontSize=22;entryX=0.5;entryY=1;entryDx=0;entryDy=0;exitX=0.5;exitY=0;exitDx=0;exitDy=0;" parent="1" source="_luehlbGn4RRNLjj8hbX-3" target="A-02325XhEpWEsaKhlx_-5" edge="1">
          <mxGeometry width="50" height="50" relative="1" as="geometry">
            <mxPoint x="450" y="580" as="sourcePoint" />
            <mxPoint x="500" y="530" as="targetPoint" />
          </mxGeometry>
        </mxCell>
        <mxCell id="A-02325XhEpWEsaKhlx_-7" value="" style="endArrow=none;html=1;rounded=0;fontSize=22;entryX=0.5;entryY=1;entryDx=0;entryDy=0;exitX=0.25;exitY=0;exitDx=0;exitDy=0;" parent="1" source="_luehlbGn4RRNLjj8hbX-3" target="A-02325XhEpWEsaKhlx_-4" edge="1">
          <mxGeometry width="50" height="50" relative="1" as="geometry">
            <mxPoint x="380" y="570" as="sourcePoint" />
            <mxPoint x="430" y="520" as="targetPoint" />
          </mxGeometry>
        </mxCell>
      </root>
    </mxGraphModel>
  </diagram>
</mxfile>
